{
  "type" : [ "h-entry" ],
  "properties" : {
    "name" : [ "GitHub - zitadel/oidc: Easy to use OpenID Connect client and server library written for Go and certified by the OpenID Foundation" ],
    "summary" : [ "Easy to use OpenID Connect client and server library written for Go and certified by the OpenID Foundation - GitHub - zitadel/oidc: Easy to use OpenID Connect client and server library written for ..." ],
    "featured" : [ "https://opengraph.githubassets.com/4dc9a471f0f8afb48fec13731bbbc021ccb21821c8a10cf41d02e52da68cf566/zitadel/oidc" ],
    "url" : [ "https://github.com/zitadel/oidc" ]
  }
}
